Sesión 9
…
# Imprimimos la base 
f_comun

## # A tibble: 36,265 x 16
##    fecha_ultima  anio hora_ultima pais_ultima edo_ultima mpo_ultima
##    <date>       <dbl> <time>      <chr>       <chr>      <chr>     
##  1 2012-03-18    2012 05:00:00    MEXICO      SONORA     NAVOJOA   
##  2 2007-02-05    2007 02:00:26    MEXICO      ESTADO DE… VALLE DE …
##  3 2009-03-14    2009 08:30:54    MEXICO      ESTADO DE… CHALCO    
##  4 2006-12-23    2006 08:00:28    MEXICO      ESTADO DE… TLALNEPAN…
##  5 2008-01-11    2008 12:00:17    MEXICO      ESTADO DE… TOLUCA    
##  6 2012-05-27    2012 12:00:43    MEXICO      ESTADO DE… NICOLAS R…
##  7 2010-07-05    2010 11:00:00    MEXICO      CHIHUAHUA  BOCOYNA   
##  8 2011-06-13    2011 01:00:11    MEXICO      ESTADO DE… AMECAMECA 
##  9 2010-04-24    2010 01:00:47    MEXICO      ESTADO DE… TEOLOYUCAN
## 10 2009-02-09    2009 02:30:00    MEXICO      TLAXCALA   TLAXCALA  
## # … with 36,255 more rows, and 10 more variables: loc_ultima <chr>,
## #   nacionalidad <chr>, estatura <chr>, complexion <chr>, sexo <chr>,
## #   edad <chr>, descripcion_de_senas_particulares <chr>, etnia <chr>,
## #   discapacidad <chr>, dependencia_envio <chr>
…
Declaramos el nombre de la nueva variable/columna dentre del summarise().

Escribimos un = para hacer la asignación de información a esa nueva variable.

Escribimos la fórmula que crea las nuevas variables.

f_comun %>% 
  group_by(anio, edo_ultima) %>% 
  summarise(no_desapariciones = n(), 
            edad_prom = max(na.omit(edad))
            ) %>% 
  ungroup()

## # A tibble: 497 x 4
##     anio edo_ultima       no_desapariciones edad_prom      
##    <dbl> <chr>                        <int> <chr>          
##  1  1968 ESTADO DE MEXICO                 1 60             
##  2  1971 QUERETARO                        1 50             
##  3  1972 CHIHUAHUA                        1 NO ESPECIFICADO
##  4  1976 PUEBLA                           1 45             
##  5  1977 SINALOA                          2 34             
##  6  1978 NUEVO LEON                       1 61             
##  7  1979 CHIHUAHUA                        1 68             
##  8  1979 ESTADO DE MEXICO                 1 63             
##  9  1979 NUEVO LEON                       1 77             
## 10  1980 QUERETARO                        1 63             
## # … with 487 more rows
…
