Sesion 4
…
Es por eso que siempre hay que fijarse en que le damos todas las categoras al vector categrico.

2. El que elabor la base de datos no pudo registrar el dato correspondiente. 

En la siguiente imagen, vemos una base de datos que tiene celdas vacas. Si la importamos en R, todas esas celdas se van a importar como NAs.

! Alt text

# Leemos la base de datos
bd <- readxl::read_xlsx("01 Datos/DesgloseAguasResiduales.xlsx", skip = 1)

# Imprimimos la base de datos. 
bd

## # A tibble: 33 x 9
##     year ent   cve_ent no    Aerobio Anaerobio `Filtros Biolg
##    <dbl> <chr> <chr>   <chr>   <dbl>     <dbl>            <dbl>
##  1  2015 Agua 01      NA       NA        12                NA 
##  2  2015 Baja 02      NA       NA        NA               155.
##  3  2015 Baja 03      NA        7.3      NA                NA 
##  4  2015 Camp 04      NA       NA        NA                10 
##  5  2015 Coah 05      NA       NA        NA                NA 
##  6  2015 Coli 06      NA       NA        NA                NA 
##  7  2015 Chia 07      NA        3.5       4.1             328.
##  8  2015 Chih 08      NA       28         0.5              NA 
##  9  2015 Ciud 09      NA       NA        NA                NA 
## 10  2015 Dura 10      NA       NA         0.2              NA 
## #  with 23 more rows, and 2 more variables: `Lagunas de
## #   estabilizacin` <dbl>, `Lodos Activados` <dbl>
…
